Quant 1 - Estimation
…
Log Likelihood estimating a mean

define what values we want to calculate log likelihood for

Code

library(psychTools)
library(tidyr)
library(tidyverse)
galton.data <- galton
grid <-
  crossing(mu = seq(from = 66, to = 69, length.out = 200), sigma = seq(from = 2, to = 3, length.out = 200))
grid

# A tibble: 40,000 × 2
      mu sigma
   <dbl> <dbl>
 1    66  2   
 2    66  2.01
 3    66  2.01
 4    66  2.02
 5    66  2.02
 6    66  2.03
 7    66  2.03
 8    66  2.04
 9    66  2.04
10    66  2.05
# ℹ 39,990 more rows
…
Code

library(purrr)
grid_function <- function(mu, sigma) {
  dnorm(galton.data$child, mean = mu, sd = sigma, log = T) %>%
    sum() 
  }

p_grid <-
  grid %>% 
  mutate(log_likelihood = map2(mu, sigma, grid_function)) %>%
  unnest(log_likelihood)
  p_grid

# A tibble: 40,000 × 3
      mu sigma log_likelihood
   <dbl> <dbl>          <dbl>
 1    66  2            -2737.
 2    66  2.01         -2733.
 3    66  2.01         -2729.
 4    66  2.02         -2725.
 5    66  2.02         -2721.
 6    66  2.03         -2718.
 7    66  2.03         -2714.
 8    66  2.04         -2710.
 9    66  2.04         -2707.
10    66  2.05         -2703.
# ℹ 39,990 more rows
…
model.1 <- lm(y1 ~ x, data = data)
mod.1 <- augment(model.1)
mod.1

# A tibble: 50 × 8
       y1      x .fitted .resid   .hat .sigma .cooksd .std.resid
    <dbl>  <dbl>   <dbl>  <dbl>  <dbl>  <dbl>   <dbl>      <dbl>
 1 -0.970  0.538   0.317 -1.29  0.0321  0.908 0.0336      -1.42 
 2 -2.25  -0.856  -0.746 -1.51  0.0309  0.901 0.0443      -1.67 
 3  0.402  1.13    0.765 -0.363 0.0601  0.926 0.00531     -0.408
 4 -2.14  -1.98   -1.60  -0.539 0.0964  0.924 0.0204      -0.618
 5  1.29   0.532   0.312  0.979 0.0319  0.916 0.0194       1.08 
 6  1.76   0.899   0.592  1.16  0.0474  0.911 0.0420       1.30 
 7  1.86   1.56    1.10   0.758 0.0914  0.921 0.0378       0.866
 8  0.163 -1.64   -1.35   1.51  0.0709  0.899 0.111        1.71 
 9 -1.79  -0.848  -0.740 -1.05  0.0306  0.915 0.0215      -1.17 
10 -2.23  -1.55   -1.27  -0.955 0.0644  0.917 0.0398      -1.08 
# ℹ 40 more rows
…
[1] 0.3781187

R

upper case R, not lower case r as in correlation

\[\large \sqrt{R^2} = r_{Y\hat{Y}}\]

Code

model.1 <- lm(y1 ~ x, data = data)
mod.1 <- augment(model.1)
mod.1

# A tibble: 50 × 8
       y1      x .fitted .resid   .hat .sigma .cooksd .std.resid
    <dbl>  <dbl>   <dbl>  <dbl>  <dbl>  <dbl>   <dbl>      <dbl>
 1 -0.970  0.538   0.317 -1.29  0.0321  0.908 0.0336      -1.42 
 2 -2.25  -0.856  -0.746 -1.51  0.0309  0.901 0.0443      -1.67 
 3  0.402  1.13    0.765 -0.363 0.0601  0.926 0.00531     -0.408
 4 -2.14  -1.98   -1.60  -0.539 0.0964  0.924 0.0204      -0.618
 5  1.29   0.532   0.312  0.979 0.0319  0.916 0.0194       1.08 
 6  1.76   0.899   0.592  1.16  0.0474  0.911 0.0420       1.30 
 7  1.86   1.56    1.10   0.758 0.0914  0.921 0.0378       0.866
 8  0.163 -1.64   -1.35   1.51  0.0709  0.899 0.111        1.71 
 9 -1.79  -0.848  -0.740 -1.05  0.0306  0.915 0.0215      -1.17 
10 -2.23  -1.55   -1.27  -0.955 0.0644  0.917 0.0398      -1.08 
# ℹ 40 more rows
…
