Quant 1 - GLM basics
…
Predictions

\[\hat{Y_i} = b_{0} + b_{1}X_i \] - People who have the same IV, get the same DV. No error in our equation.

Predictions

\(\hat{Y_i}\) are also known as fitted values

d1.f<- augment(m.1)
d1.f

# A tibble: 100 × 8
      y.1     x.1 .fitted .resid   .hat .sigma   .cooksd .std.resid
    <dbl>   <dbl>   <dbl>  <dbl>  <dbl>  <dbl>     <dbl>      <dbl>
 1 -1.23  -0.560   0.0450 -1.27  0.0151   1.95 0.00336      -0.661 
 2  0.887 -0.230   0.192   0.695 0.0112   1.95 0.000738      0.360 
 3  0.864  1.56    0.988  -0.124 0.0361   1.95 0.0000796    -0.0652
 4 -0.156  0.0705  0.326  -0.482 0.0100   1.95 0.000315     -0.250 
 5 -1.33   0.129   0.352  -1.68  0.0100   1.94 0.00385      -0.872 
 6  1.35   1.72    1.06    0.296 0.0420   1.95 0.000530      0.156 
 7 -0.816  0.461   0.500  -1.32  0.0117   1.95 0.00274      -0.682 
 8 -3.53  -1.27   -0.269  -3.26  0.0323   1.92 0.0487       -1.71  
 9 -0.638 -0.687  -0.0113 -0.627 0.0173   1.95 0.000935     -0.326 
10  2.09  -0.446   0.0960  2.00  0.0135   1.94 0.00733       1.04  
# ℹ 90 more rows
…
